ISO-10303-21;
HEADER;
FILE_DESCRIPTION(('CATIA V5 STEP Exchange'),'2;1');

FILE_NAME('C:\\Users\\Christoph\\Documents\\coresexy\\CAD\\hbotgantry\\IECPlate.stp','2020-05-30T13:57:44+00:00',('none'),('none'),'CATIA Version 5 Release 18 SP 5 (IN-10)','CATIA V5 STEP AP203','none');

FILE_SCHEMA(('CONFIG_CONTROL_DESIGN'));

ENDSEC;
/* file written by CATIA V5R18 */
DATA;
#5=PRODUCT('IECPlate','','',(#2)) ;
#1=APPLICATION_CONTEXT('configuration controlled 3D design of mechanical parts and assemblies') ;
#14=PRODUCT_DEFINITION(' ',' ',#6,#3) ;
#16=SECURITY_CLASSIFICATION(' ',' ',#15) ;
#15=SECURITY_CLASSIFICATION_LEVEL('unclassified') ;
#47=CARTESIAN_POINT(' ',(0.,0.,0.)) ;
#52=CARTESIAN_POINT('Axis2P3D Location',(0.75,15.,-40.)) ;
#57=CARTESIAN_POINT('Axis2P3D Location',(1.5,15.,-40.)) ;
#61=CARTESIAN_POINT('Vertex',(1.5,12.75,-40.)) ;
#63=CARTESIAN_POINT('Vertex',(1.5,17.25,-40.)) ;
#66=CARTESIAN_POINT('Line Origine',(0.75,17.25,-40.)) ;
#70=CARTESIAN_POINT('Vertex',(0.,17.25,-40.)) ;
#73=CARTESIAN_POINT('Axis2P3D Location',(0.,15.,-40.)) ;
#77=CARTESIAN_POINT('Vertex',(0.,12.75,-40.)) ;
#80=CARTESIAN_POINT('Line Origine',(0.75,12.75,-40.)) ;
#92=CARTESIAN_POINT('Axis2P3D Location',(1.5,15.,-40.)) ;
#97=CARTESIAN_POINT('Axis2P3D Location',(0.,15.,-40.)) ;
#109=CARTESIAN_POINT('Axis2P3D Location',(0.75,20.,-75.)) ;
#114=CARTESIAN_POINT('Axis2P3D Location',(1.5,20.,-75.)) ;
#118=CARTESIAN_POINT('Vertex',(1.5,25.,-75.)) ;
#120=CARTESIAN_POINT('Vertex',(1.5,20.,-80.)) ;
#123=CARTESIAN_POINT('Line Origine',(0.75,20.,-80.)) ;
#127=CARTESIAN_POINT('Vertex',(0.,20.,-80.)) ;
#130=CARTESIAN_POINT('Axis2P3D Location',(0.,20.,-75.)) ;
#134=CARTESIAN_POINT('Vertex',(0.,25.,-75.)) ;
#137=CARTESIAN_POINT('Line Origine',(0.75,25.,-75.)) ;
#149=CARTESIAN_POINT('Axis2P3D Location',(0.,25.,0.)) ;
#154=CARTESIAN_POINT('Line Origine',(0.75,25.,-2.07106781187)) ;
#158=CARTESIAN_POINT('Vertex',(0.,25.,-2.07106781187)) ;
#160=CARTESIAN_POINT('Vertex',(1.5,25.,-2.07106781187)) ;
#163=CARTESIAN_POINT('Line Origine',(1.5,25.,-38.5355339059)) ;
#168=CARTESIAN_POINT('Line Origine',(0.,25.,-38.5355339059)) ;
#180=CARTESIAN_POINT('Axis2P3D Location',(0.75,20.,-2.07106781187)) ;
#185=CARTESIAN_POINT('Axis2P3D Location',(1.5,20.,-2.07106781187)) ;
#189=CARTESIAN_POINT('Vertex',(1.5,23.5355339059,1.46446609407)) ;
#192=CARTESIAN_POINT('Axis2P3D Location',(0.,20.,-2.07106781187)) ;
#196=CARTESIAN_POINT('Vertex',(0.,23.5355339059,1.46446609407)) ;
#199=CARTESIAN_POINT('Line Origine',(0.75,23.5355339059,1.46446609407)) ;
#211=CARTESIAN_POINT('Axis2P3D Location',(0.,25.,1.7763568394E-015)) ;
#216=CARTESIAN_POINT('Line Origine',(1.5,12.5,12.5)) ;
#220=CARTESIAN_POINT('Vertex',(1.5,1.46446609407,23.5355339059)) ;
#223=CARTESIAN_POINT('Line Origine',(0.,12.5,12.5)) ;
#227=CARTESIAN_POINT('Vertex',(0.,1.46446609407,23.5355339059)) ;
#230=CARTESIAN_POINT('Line Origine',(0.75,1.46446609407,23.5355339059)) ;
#242=CARTESIAN_POINT('Axis2P3D Location',(0.75,-2.07106781187,20.)) ;
#247=CARTESIAN_POINT('Axis2P3D Location',(1.5,-2.07106781187,20.)) ;
#251=CARTESIAN_POINT('Vertex',(1.5,-2.07106781187,25.)) ;
#254=CARTESIAN_POINT('Axis2P3D Location',(1.11022302463E-016,-2.07106781187,20.)) ;
#258=CARTESIAN_POINT('Vertex',(0.,-2.07106781187,25.)) ;
#261=CARTESIAN_POINT('Line Origine',(0.75,-2.07106781187,25.)) ;
#273=CARTESIAN_POINT('Axis2P3D Location',(0.,-50.,25.)) ;
#278=CARTESIAN_POINT('Line Origine',(0.75,-45.,25.)) ;
#282=CARTESIAN_POINT('Vertex',(0.,-45.,25.)) ;
#284=CARTESIAN_POINT('Vertex',(1.5,-45.,25.)) ;
#287=CARTESIAN_POINT('Line Origine',(1.5,-23.5355339059,25.)) ;
#292=CARTESIAN_POINT('Line Origine',(0.,-23.5355339059,25.)) ;
#304=CARTESIAN_POINT('Axis2P3D Location',(0.75,-45.,20.)) ;
#309=CARTESIAN_POINT('Axis2P3D Location',(1.5,-45.,20.)) ;
#313=CARTESIAN_POINT('Vertex',(1.5,-50.,20.)) ;
#316=CARTESIAN_POINT('Axis2P3D Location',(0.,-45.,20.)) ;
#320=CARTESIAN_POINT('Vertex',(0.,-50.,20.)) ;
#323=CARTESIAN_POINT('Line Origine',(0.75,-50.,20.)) ;
#335=CARTESIAN_POINT('Axis2P3D Location',(0.75,-25.,15.)) ;
#340=CARTESIAN_POINT('Axis2P3D Location',(1.5,-25.,15.)) ;
#344=CARTESIAN_POINT('Vertex',(1.5,-27.25,15.)) ;
#346=CARTESIAN_POINT('Vertex',(1.5,-22.75,15.)) ;
#349=CARTESIAN_POINT('Line Origine',(0.75,-22.75,15.)) ;
#353=CARTESIAN_POINT('Vertex',(0.,-22.75,15.)) ;
#356=CARTESIAN_POINT('Axis2P3D Location',(0.,-25.,15.)) ;
#360=CARTESIAN_POINT('Vertex',(0.,-27.25,15.)) ;
#363=CARTESIAN_POINT('Line Origine',(0.75,-27.25,15.)) ;
#375=CARTESIAN_POINT('Axis2P3D Location',(1.5,-25.,15.)) ;
#380=CARTESIAN_POINT('Axis2P3D Location',(0.,-25.,15.)) ;
#392=CARTESIAN_POINT('Axis2P3D Location',(0.,-39.,-16.)) ;
#397=CARTESIAN_POINT('Line Origine',(1.5,-25.,-16.)) ;
#401=CARTESIAN_POINT('Vertex',(1.5,-11.,-16.)) ;
#403=CARTESIAN_POINT('Vertex',(1.5,-39.,-16.)) ;
#406=CARTESIAN_POINT('Line Origine',(0.75,-39.,-16.)) ;
#410=CARTESIAN_POINT('Vertex',(0.,-39.,-16.)) ;
#413=CARTESIAN_POINT('Line Origine',(0.,-25.,-16.)) ;
#417=CARTESIAN_POINT('Vertex',(0.,-11.,-16.)) ;
#420=CARTESIAN_POINT('Line Origine',(0.75,-11.,-16.)) ;
#432=CARTESIAN_POINT('Axis2P3D Location',(0.,-11.,-57.5)) ;
#437=CARTESIAN_POINT('Line Origine',(1.5,-11.,-36.75)) ;
#441=CARTESIAN_POINT('Vertex',(1.5,-11.,-57.5)) ;
#444=CARTESIAN_POINT('Line Origine',(0.,-11.,-36.75)) ;
#448=CARTESIAN_POINT('Vertex',(0.,-11.,-57.5)) ;
#451=CARTESIAN_POINT('Line Origine',(0.75,-11.,-57.5)) ;
#463=CARTESIAN_POINT('Axis2P3D Location',(0.,-11.,-57.5)) ;
#468=CARTESIAN_POINT('Line Origine',(1.5,-14.25,-60.75)) ;
#472=CARTESIAN_POINT('Vertex',(1.5,-17.5,-64.)) ;
#475=CARTESIAN_POINT('Line Origine',(0.,-14.25,-60.75)) ;
#479=CARTESIAN_POINT('Vertex',(0.,-17.5,-64.)) ;
#482=CARTESIAN_POINT('Line Origine',(0.75,-17.5,-64.)) ;
#494=CARTESIAN_POINT('Axis2P3D Location',(0.,-17.5,-64.)) ;
#499=CARTESIAN_POINT('Line Origine',(1.5,-25.,-64.)) ;
#503=CARTESIAN_POINT('Vertex',(1.5,-32.5,-64.)) ;
#506=CARTESIAN_POINT('Line Origine',(0.,-25.,-64.)) ;
#510=CARTESIAN_POINT('Vertex',(0.,-32.5,-64.)) ;
#513=CARTESIAN_POINT('Line Origine',(0.75,-32.5,-64.)) ;
#525=CARTESIAN_POINT('Axis2P3D Location',(0.,-32.5,-64.)) ;
#530=CARTESIAN_POINT('Line Origine',(1.5,-35.75,-60.75)) ;
#534=CARTESIAN_POINT('Vertex',(1.5,-39.,-57.5)) ;
#537=CARTESIAN_POINT('Line Origine',(0.,-35.75,-60.75)) ;
#541=CARTESIAN_POINT('Vertex',(0.,-39.,-57.5)) ;
#544=CARTESIAN_POINT('Line Origine',(0.75,-39.,-57.5)) ;
#556=CARTESIAN_POINT('Axis2P3D Location',(0.,-39.,-16.)) ;
#561=CARTESIAN_POINT('Line Origine',(1.5,-39.,-36.75)) ;
#566=CARTESIAN_POINT('Line Origine',(0.,-39.,-36.75)) ;
#578=CARTESIAN_POINT('Axis2P3D Location',(1.5,0.,0.)) ;
#583=CARTESIAN_POINT('Line Origine',(1.5,-50.,-27.5)) ;
#587=CARTESIAN_POINT('Vertex',(1.5,-50.,-75.)) ;
#590=CARTESIAN_POINT('Axis2P3D Location',(1.5,-45.,-75.)) ;
#594=CARTESIAN_POINT('Vertex',(1.5,-45.,-80.)) ;
#597=CARTESIAN_POINT('Line Origine',(1.5,-12.5,-80.)) ;
#631=CARTESIAN_POINT('Axis2P3D Location',(-5.,-45.,-75.)) ;
#636=CARTESIAN_POINT('Line Origine',(-5.,-45.,-80.)) ;
#640=CARTESIAN_POINT('Vertex',(-10.,-45.,-80.)) ;
#643=CARTESIAN_POINT('Line Origine',(-5.,-50.,-75.)) ;
#647=CARTESIAN_POINT('Vertex',(-10.,-50.,-75.)) ;
#650=CARTESIAN_POINT('Axis2P3D Location',(-10.,-45.,-75.)) ;
#662=CARTESIAN_POINT('Axis2P3D Location',(-10.,0.,0.)) ;
#667=CARTESIAN_POINT('Line Origine',(-10.,-28.,-80.)) ;
#671=CARTESIAN_POINT('Vertex',(-10.,-11.,-80.)) ;
#674=CARTESIAN_POINT('Line Origine',(-10.,-50.,-43.)) ;
#678=CARTESIAN_POINT('Vertex',(-10.,-50.,-11.)) ;
#681=CARTESIAN_POINT('Line Origine',(-10.,-49.,-11.)) ;
#685=CARTESIAN_POINT('Vertex',(-10.,-48.,-11.)) ;
#688=CARTESIAN_POINT('Line Origine',(-10.,-48.,-43.)) ;
#692=CARTESIAN_POINT('Vertex',(-10.,-48.,-75.)) ;
#695=CARTESIAN_POINT('Axis2P3D Location',(-10.,-45.,-75.)) ;
#699=CARTESIAN_POINT('Vertex',(-10.,-45.,-78.)) ;
#702=CARTESIAN_POINT('Line Origine',(-10.,-28.,-78.)) ;
#706=CARTESIAN_POINT('Vertex',(-10.,-11.,-78.)) ;
#709=CARTESIAN_POINT('Line Origine',(-10.,-11.,-79.)) ;
#725=CARTESIAN_POINT('Axis2P3D Location',(0.,25.,-80.)) ;
#730=CARTESIAN_POINT('Line Origine',(0.,10.5355339059,-80.)) ;
#734=CARTESIAN_POINT('Vertex',(0.,1.07106781187,-80.)) ;
#737=CARTESIAN_POINT('Line Origine',(-5.73223304703,-6.73223304703,-80.)) ;
#741=CARTESIAN_POINT('Vertex',(-1.46446609407,-2.46446609407,-80.)) ;
#744=CARTESIAN_POINT('Axis2P3D Location',(-5.,1.07106781187,-80.)) ;
#759=CARTESIAN_POINT('Axis2P3D Location',(0.,-50.,-80.)) ;
#764=CARTESIAN_POINT('Axis2P3D Location',(-5.,-50.,1.07106781187)) ;
#768=CARTESIAN_POINT('Vertex',(0.,-50.,1.07106781187)) ;
#770=CARTESIAN_POINT('Vertex',(-1.46446609407,-50.,-2.46446609407)) ;
#773=CARTESIAN_POINT('Line Origine',(-5.73223304703,-50.,-6.73223304703)) ;
#778=CARTESIAN_POINT('Line Origine',(0.,-50.,10.5355339059)) ;
#793=CARTESIAN_POINT('Axis2P3D Location',(0.,-59.8,-1.)) ;
#798=CARTESIAN_POINT('Line Origine',(-5.,-48.,-6.)) ;
#802=CARTESIAN_POINT('Vertex',(-2.,-48.,-3.)) ;
#805=CARTESIAN_POINT('Line Origine',(-1.46446609407,-25.5,-2.46446609407)) ;
#809=CARTESIAN_POINT('Vertex',(-1.46446609407,-47.926967055,-2.46446609407)) ;
#813=CARTESIAN_POINT('Control Point',(-2.,-48.,-3.)) ;
#814=CARTESIAN_POINT('Control Point',(-1.82038206422,-48.,-2.82038206422)) ;
#815=CARTESIAN_POINT('Control Point',(-1.64071910442,-47.9759505688,-2.64071910442)) ;
#816=CARTESIAN_POINT('Control Point',(-1.46446609407,-47.926967055,-2.46446609407)) ;
#826=CARTESIAN_POINT('Axis2P3D Location',(0.,-1.,-93.8)) ;
#832=CARTESIAN_POINT('Control Point',(-2.,-3.,-78.)) ;
#833=CARTESIAN_POINT('Control Point',(-1.82038206424,-2.82038206424,-78.)) ;
#834=CARTESIAN_POINT('Control Point',(-1.64071910443,-2.64071910443,-77.9759505688)) ;
#835=CARTESIAN_POINT('Control Point',(-1.46446609407,-2.46446609407,-77.926967055)) ;
#836=CARTESIAN_POINT('Vertex',(-2.,-3.,-78.)) ;
#838=CARTESIAN_POINT('Vertex',(-1.46446609407,-2.46446609407,-77.926967055)) ;
#841=CARTESIAN_POINT('Line Origine',(-1.46446609407,-2.46446609407,-45.5)) ;
#846=CARTESIAN_POINT('Line Origine',(-5.,-6.,-78.)) ;
#859=CARTESIAN_POINT('Axis2P3D Location',(0.,-45.,-78.)) ;
#864=CARTESIAN_POINT('Line Origine',(-6.,-45.,-78.)) ;
#868=CARTESIAN_POINT('Vertex',(-2.,-45.,-78.)) ;
#871=CARTESIAN_POINT('Line Origine',(-2.,-24.,-78.)) ;
#883=CARTESIAN_POINT('Axis2P3D Location',(-5.,-45.,-75.)) ;
#888=CARTESIAN_POINT('Axis2P3D Location',(-2.,-45.,-75.)) ;
#892=CARTESIAN_POINT('Vertex',(-2.,-48.,-75.)) ;
#895=CARTESIAN_POINT('Line Origine',(-5.,-48.,-75.)) ;
#907=CARTESIAN_POINT('Axis2P3D Location',(0.,-48.,-1.)) ;
#912=CARTESIAN_POINT('Line Origine',(-2.,-48.,-39.)) ;
#924=CARTESIAN_POINT('Axis2P3D Location',(0.,0.,0.)) ;
#929=CARTESIAN_POINT('Line Origine',(0.,-21.9644660941,-76.)) ;
#933=CARTESIAN_POINT('Vertex',(0.,-45.0000015704,-76.)) ;
#935=CARTESIAN_POINT('Vertex',(0.,1.07106781187,-76.)) ;
#938=CARTESIAN_POINT('Axis2P3D Location',(0.,-45.,-75.)) ;
#942=CARTESIAN_POINT('Vertex',(0.,-46.,-75.)) ;
#945=CARTESIAN_POINT('Line Origine',(0.,-46.,-36.9644660941)) ;
#949=CARTESIAN_POINT('Vertex',(0.,-46.,1.07106781187)) ;
#952=CARTESIAN_POINT('Line Origine',(0.,-48.,1.07106781187)) ;
#957=CARTESIAN_POINT('Line Origine',(0.,1.07106781187,-78.)) ;
#996=CARTESIAN_POINT('Control Point',(-2.,-43.1952835179,-72.6035446135)) ;
#997=CARTESIAN_POINT('Control Point',(-1.37168146928,-43.1952835179,-72.6035446135)) ;
#998=CARTESIAN_POINT('Control Point',(-0.742776713274,-43.3432883215,-72.8000779262)) ;
#999=CARTESIAN_POINT('Control Point',(-0.246030008091,-43.6421173103,-73.1968883653)) ;
#1000=CARTESIAN_POINT('Control Point',(-7.2858385991E-016,-44.0204489032,-73.6992690954)) ;
#1001=CARTESIAN_POINT('Control Point',(0.,-44.3984278393,-74.2011815378)) ;
#1002=CARTESIAN_POINT('Axis1P Location',(-2.,-45.,-75.)) ;
#1006=CARTESIAN_POINT('Axis2P3D Location',(-2.,-45.,-76.)) ;
#1011=CARTESIAN_POINT('Axis2P3D Location',(-2.,-46.,-75.)) ;
#1023=CARTESIAN_POINT('Axis2P3D Location',(-2.,-12.5,-76.)) ;
#1029=CARTESIAN_POINT('Control Point',(-1.46446316951,-2.46446609407,-77.9269666067)) ;
#1030=CARTESIAN_POINT('Control Point',(-0.854117721853,-1.85412064641,-77.7573412144)) ;
#1031=CARTESIAN_POINT('Control Point',(-0.409053791155,-1.14244144861,-77.3732661723)) ;
#1032=CARTESIAN_POINT('Control Point',(-0.140366312256,-0.417136389493,-76.9419381981)) ;
#1033=CARTESIAN_POINT('Control Point',(-5.51410768897E-016,0.327612603942,-76.4702023591)) ;
#1034=CARTESIAN_POINT('Control Point',(-1.11022302463E-016,1.07106781187,-76.)) ;
#1044=CARTESIAN_POINT('Axis2P3D Location',(-2.,-46.,-27.5)) ;
#1050=CARTESIAN_POINT('Control Point',(-1.46446316952,-47.9269666067,-2.46446609407)) ;
#1051=CARTESIAN_POINT('Control Point',(-0.854117721864,-47.7573412144,-1.85412064642)) ;
#1052=CARTESIAN_POINT('Control Point',(-0.409053791118,-47.3732661723,-1.14244144858)) ;
#1053=CARTESIAN_POINT('Control Point',(-0.140366312261,-46.9419381981,-0.417136389467)) ;
#1054=CARTESIAN_POINT('Control Point',(-1.90819582357E-016,-46.4702023591,0.327612603954)) ;
#1055=CARTESIAN_POINT('Control Point',(0.,-46.,1.07106781187)) ;
#1065=CARTESIAN_POINT('Axis2P3D Location',(-5.,1.07106781187,-27.5)) ;
#1077=CARTESIAN_POINT('Axis2P3D Location',(-5.,-12.5,1.07106781187)) ;
#53=DIRECTION('Axis2P3D Direction',(1.,0.,0.)) ;
#54=DIRECTION('Axis2P3D XDirection',(0.,1.,0.)) ;
#58=DIRECTION('Axis2P3D Direction',(1.,0.,0.)) ;
#67=DIRECTION('Vector Direction',(1.,0.,0.)) ;
#74=DIRECTION('Axis2P3D Direction',(1.,0.,0.)) ;
#81=DIRECTION('Vector Direction',(1.,0.,0.)) ;
#93=DIRECTION('Axis2P3D Direction',(1.,0.,0.)) ;
#98=DIRECTION('Axis2P3D Direction',(1.,0.,0.)) ;
#110=DIRECTION('Axis2P3D Direction',(1.,0.,0.)) ;
#111=DIRECTION('Axis2P3D XDirection',(-0.,-1.83697019872E-016,-1.)) ;
#115=DIRECTION('Axis2P3D Direction',(1.,0.,0.)) ;
#124=DIRECTION('Vector Direction',(1.,0.,0.)) ;
#131=DIRECTION('Axis2P3D Direction',(1.,0.,0.)) ;
#138=DIRECTION('Vector Direction',(1.,0.,0.)) ;
#150=DIRECTION('Axis2P3D Direction',(0.,-1.,0.)) ;
#151=DIRECTION('Axis2P3D XDirection',(0.,0.,-1.)) ;
#155=DIRECTION('Vector Direction',(1.,0.,0.)) ;
#164=DIRECTION('Vector Direction',(0.,0.,-1.)) ;
#169=DIRECTION('Vector Direction',(0.,0.,-1.)) ;
#181=DIRECTION('Axis2P3D Direction',(1.,0.,-0.)) ;
#182=DIRECTION('Axis2P3D XDirection',(0.,1.,-2.22044604925E-016)) ;
#186=DIRECTION('Axis2P3D Direction',(1.,0.,-0.)) ;
#193=DIRECTION('Axis2P3D Direction',(1.,0.,-0.)) ;
#200=DIRECTION('Vector Direction',(1.,0.,0.)) ;
#212=DIRECTION('Axis2P3D Direction',(-0.,0.707106781187,0.707106781187)) ;
#213=DIRECTION('Axis2P3D XDirection',(0.,-0.707106781187,0.707106781187)) ;
#217=DIRECTION('Vector Direction',(0.,-0.707106781187,0.707106781187)) ;
#224=DIRECTION('Vector Direction',(0.,-0.707106781187,0.707106781187)) ;
#231=DIRECTION('Vector Direction',(1.,0.,0.)) ;
#243=DIRECTION('Axis2P3D Direction',(1.,0.,-0.)) ;
#244=DIRECTION('Axis2P3D XDirection',(0.,0.707106781187,0.707106781187)) ;
#248=DIRECTION('Axis2P3D Direction',(1.,0.,-0.)) ;
#255=DIRECTION('Axis2P3D Direction',(1.,0.,-0.)) ;
#262=DIRECTION('Vector Direction',(1.,0.,0.)) ;
#274=DIRECTION('Axis2P3D Direction',(0.,0.,-1.)) ;
#275=DIRECTION('Axis2P3D XDirection',(0.,1.,0.)) ;
#279=DIRECTION('Vector Direction',(1.,0.,0.)) ;
#288=DIRECTION('Vector Direction',(0.,1.,0.)) ;
#293=DIRECTION('Vector Direction',(0.,1.,0.)) ;
#305=DIRECTION('Axis2P3D Direction',(1.,0.,0.)) ;
#306=DIRECTION('Axis2P3D XDirection',(-0.,1.83697019872E-016,1.)) ;
#310=DIRECTION('Axis2P3D Direction',(1.,0.,0.)) ;
#317=DIRECTION('Axis2P3D Direction',(1.,0.,0.)) ;
#324=DIRECTION('Vector Direction',(1.,0.,0.)) ;
#336=DIRECTION('Axis2P3D Direction',(1.,0.,0.)) ;
#337=DIRECTION('Axis2P3D XDirection',(0.,1.,0.)) ;
#341=DIRECTION('Axis2P3D Direction',(1.,0.,0.)) ;
#350=DIRECTION('Vector Direction',(1.,0.,0.)) ;
#357=DIRECTION('Axis2P3D Direction',(1.,0.,0.)) ;
#364=DIRECTION('Vector Direction',(1.,0.,0.)) ;
#376=DIRECTION('Axis2P3D Direction',(1.,0.,0.)) ;
#381=DIRECTION('Axis2P3D Direction',(1.,0.,0.)) ;
#393=DIRECTION('Axis2P3D Direction',(0.,0.,-1.)) ;
#394=DIRECTION('Axis2P3D XDirection',(0.,1.,0.)) ;
#398=DIRECTION('Vector Direction',(0.,1.,0.)) ;
#407=DIRECTION('Vector Direction',(1.,0.,0.)) ;
#414=DIRECTION('Vector Direction',(0.,1.,0.)) ;
#421=DIRECTION('Vector Direction',(1.,0.,0.)) ;
#433=DIRECTION('Axis2P3D Direction',(0.,1.,0.)) ;
#434=DIRECTION('Axis2P3D XDirection',(0.,0.,1.)) ;
#438=DIRECTION('Vector Direction',(0.,0.,1.)) ;
#445=DIRECTION('Vector Direction',(0.,0.,1.)) ;
#452=DIRECTION('Vector Direction',(1.,0.,0.)) ;
#464=DIRECTION('Axis2P3D Direction',(0.,-0.707106781187,0.707106781187)) ;
#465=DIRECTION('Axis2P3D XDirection',(-0.,-0.707106781187,-0.707106781187)) ;
#469=DIRECTION('Vector Direction',(0.,-0.707106781187,-0.707106781187)) ;
#476=DIRECTION('Vector Direction',(0.,-0.707106781187,-0.707106781187)) ;
#483=DIRECTION('Vector Direction',(1.,0.,0.)) ;
#495=DIRECTION('Axis2P3D Direction',(-0.,0.,1.)) ;
#496=DIRECTION('Axis2P3D XDirection',(0.,-1.,0.)) ;
#500=DIRECTION('Vector Direction',(0.,-1.,0.)) ;
#507=DIRECTION('Vector Direction',(0.,-1.,0.)) ;
#514=DIRECTION('Vector Direction',(1.,0.,0.)) ;
#526=DIRECTION('Axis2P3D Direction',(-0.,0.707106781187,0.707106781187)) ;
#527=DIRECTION('Axis2P3D XDirection',(0.,-0.707106781187,0.707106781187)) ;
#531=DIRECTION('Vector Direction',(0.,-0.707106781187,0.707106781187)) ;
#538=DIRECTION('Vector Direction',(0.,-0.707106781187,0.707106781187)) ;
#545=DIRECTION('Vector Direction',(1.,0.,0.)) ;
#557=DIRECTION('Axis2P3D Direction',(0.,-1.,0.)) ;
#558=DIRECTION('Axis2P3D XDirection',(0.,0.,-1.)) ;
#562=DIRECTION('Vector Direction',(0.,0.,-1.)) ;
#567=DIRECTION('Vector Direction',(0.,0.,-1.)) ;
#579=DIRECTION('Axis2P3D Direction',(1.,0.,0.)) ;
#580=DIRECTION('Axis2P3D XDirection',(0.,1.,0.)) ;
#584=DIRECTION('Vector Direction',(0.,0.,1.)) ;
#591=DIRECTION('Axis2P3D Direction',(1.,0.,0.)) ;
#598=DIRECTION('Vector Direction',(0.,-1.,0.)) ;
#632=DIRECTION('Axis2P3D Direction',(-1.,0.,0.)) ;
#633=DIRECTION('Axis2P3D XDirection',(-0.,1.83697019872E-016,-1.)) ;
#637=DIRECTION('Vector Direction',(-1.,0.,0.)) ;
#644=DIRECTION('Vector Direction',(-1.,0.,0.)) ;
#651=DIRECTION('Axis2P3D Direction',(-1.,0.,0.)) ;
#663=DIRECTION('Axis2P3D Direction',(-1.,0.,0.)) ;
#664=DIRECTION('Axis2P3D XDirection',(0.,-1.,0.)) ;
#668=DIRECTION('Vector Direction',(0.,1.,0.)) ;
#675=DIRECTION('Vector Direction',(0.,0.,-1.)) ;
#682=DIRECTION('Vector Direction',(0.,1.,0.)) ;
#689=DIRECTION('Vector Direction',(0.,0.,-1.)) ;
#696=DIRECTION('Axis2P3D Direction',(-1.,0.,0.)) ;
#703=DIRECTION('Vector Direction',(0.,1.,0.)) ;
#710=DIRECTION('Vector Direction',(0.,0.,1.)) ;
#726=DIRECTION('Axis2P3D Direction',(-0.,0.,1.)) ;
#727=DIRECTION('Axis2P3D XDirection',(0.,-1.,0.)) ;
#731=DIRECTION('Vector Direction',(0.,-1.,0.)) ;
#738=DIRECTION('Vector Direction',(0.707106781187,0.707106781187,0.)) ;
#745=DIRECTION('Axis2P3D Direction',(-0.,0.,1.)) ;
#760=DIRECTION('Axis2P3D Direction',(0.,1.,0.)) ;
#761=DIRECTION('Axis2P3D XDirection',(0.,0.,1.)) ;
#765=DIRECTION('Axis2P3D Direction',(0.,1.,0.)) ;
#774=DIRECTION('Vector Direction',(0.707106781187,0.,0.707106781187)) ;
#779=DIRECTION('Vector Direction',(0.,0.,1.)) ;
#794=DIRECTION('Axis2P3D Direction',(-0.707106781187,0.,0.707106781187)) ;
#795=DIRECTION('Axis2P3D XDirection',(0.,1.,0.)) ;
#799=DIRECTION('Vector Direction',(-0.707106781187,0.,-0.707106781187)) ;
#806=DIRECTION('Vector Direction',(0.,1.,0.)) ;
#827=DIRECTION('Axis2P3D Direction',(0.707106781187,-0.707106781187,0.)) ;
#828=DIRECTION('Axis2P3D XDirection',(0.,0.,1.)) ;
#842=DIRECTION('Vector Direction',(0.,0.,1.)) ;
#847=DIRECTION('Vector Direction',(-0.707106781187,-0.707106781187,0.)) ;
#860=DIRECTION('Axis2P3D Direction',(0.,-0.,1.)) ;
#861=DIRECTION('Axis2P3D XDirection',(0.,1.,0.)) ;
#865=DIRECTION('Vector Direction',(-1.,0.,0.)) ;
#872=DIRECTION('Vector Direction',(0.,1.,0.)) ;
#884=DIRECTION('Axis2P3D Direction',(-1.,0.,0.)) ;
#885=DIRECTION('Axis2P3D XDirection',(-0.,1.83697019872E-016,-1.)) ;
#889=DIRECTION('Axis2P3D Direction',(-1.,0.,0.)) ;
#896=DIRECTION('Vector Direction',(-1.,0.,0.)) ;
#908=DIRECTION('Axis2P3D Direction',(0.,1.,0.)) ;
#909=DIRECTION('Axis2P3D XDirection',(0.,-0.,-1.)) ;
#913=DIRECTION('Vector Direction',(0.,0.,-1.)) ;
#925=DIRECTION('Axis2P3D Direction',(1.,0.,0.)) ;
#926=DIRECTION('Axis2P3D XDirection',(0.,1.,0.)) ;
#930=DIRECTION('Vector Direction',(0.,1.,0.)) ;
#939=DIRECTION('Axis2P3D Direction',(1.,0.,0.)) ;
#946=DIRECTION('Vector Direction',(0.,0.,-1.)) ;
#953=DIRECTION('Vector Direction',(0.,1.,0.)) ;
#958=DIRECTION('Vector Direction',(0.,0.,1.)) ;
#1003=DIRECTION('Axis1P Direction',(-1.,-0.,0.)) ;
#1007=DIRECTION('Axis2P3D Direction',(0.,-1.,3.88578058619E-016)) ;
#1012=DIRECTION('Axis2P3D Direction',(0.,4.71844785466E-015,1.)) ;
#1024=DIRECTION('Axis2P3D Direction',(0.,1.,0.)) ;
#1025=DIRECTION('Axis2P3D XDirection',(1.,-0.,1.83697019872E-016)) ;
#1045=DIRECTION('Axis2P3D Direction',(0.,0.,-1.)) ;
#1046=DIRECTION('Axis2P3D XDirection',(1.,1.83697019872E-016,0.)) ;
#1066=DIRECTION('Axis2P3D Direction',(0.,0.,1.)) ;
#1067=DIRECTION('Axis2P3D XDirection',(0.707106781187,-0.707106781187,0.)) ;
#1078=DIRECTION('Axis2P3D Direction',(-0.,1.,0.)) ;
#1079=DIRECTION('Axis2P3D XDirection',(1.,0.,0.)) ;
#48=AXIS2_PLACEMENT_3D(' ',#47,$,$) ;
#55=AXIS2_PLACEMENT_3D('Cylinder Axis2P3D',#52,#53,#54) ;
#59=AXIS2_PLACEMENT_3D('Circle Axis2P3D',#57,#58,$) ;
#75=AXIS2_PLACEMENT_3D('Circle Axis2P3D',#73,#74,$) ;
#94=AXIS2_PLACEMENT_3D('Circle Axis2P3D',#92,#93,$) ;
#99=AXIS2_PLACEMENT_3D('Circle Axis2P3D',#97,#98,$) ;
#112=AXIS2_PLACEMENT_3D('Cylinder Axis2P3D',#109,#110,#111) ;
#116=AXIS2_PLACEMENT_3D('Circle Axis2P3D',#114,#115,$) ;
#132=AXIS2_PLACEMENT_3D('Circle Axis2P3D',#130,#131,$) ;
#152=AXIS2_PLACEMENT_3D('Plane Axis2P3D',#149,#150,#151) ;
#183=AXIS2_PLACEMENT_3D('Cylinder Axis2P3D',#180,#181,#182) ;
#187=AXIS2_PLACEMENT_3D('Circle Axis2P3D',#185,#186,$) ;
#194=AXIS2_PLACEMENT_3D('Circle Axis2P3D',#192,#193,$) ;
#214=AXIS2_PLACEMENT_3D('Plane Axis2P3D',#211,#212,#213) ;
#245=AXIS2_PLACEMENT_3D('Cylinder Axis2P3D',#242,#243,#244) ;
#249=AXIS2_PLACEMENT_3D('Circle Axis2P3D',#247,#248,$) ;
#256=AXIS2_PLACEMENT_3D('Circle Axis2P3D',#254,#255,$) ;
#276=AXIS2_PLACEMENT_3D('Plane Axis2P3D',#273,#274,#275) ;
#307=AXIS2_PLACEMENT_3D('Cylinder Axis2P3D',#304,#305,#306) ;
#311=AXIS2_PLACEMENT_3D('Circle Axis2P3D',#309,#310,$) ;
#318=AXIS2_PLACEMENT_3D('Circle Axis2P3D',#316,#317,$) ;
#338=AXIS2_PLACEMENT_3D('Cylinder Axis2P3D',#335,#336,#337) ;
#342=AXIS2_PLACEMENT_3D('Circle Axis2P3D',#340,#341,$) ;
#358=AXIS2_PLACEMENT_3D('Circle Axis2P3D',#356,#357,$) ;
#377=AXIS2_PLACEMENT_3D('Circle Axis2P3D',#375,#376,$) ;
#382=AXIS2_PLACEMENT_3D('Circle Axis2P3D',#380,#381,$) ;
#395=AXIS2_PLACEMENT_3D('Plane Axis2P3D',#392,#393,#394) ;
#435=AXIS2_PLACEMENT_3D('Plane Axis2P3D',#432,#433,#434) ;
#466=AXIS2_PLACEMENT_3D('Plane Axis2P3D',#463,#464,#465) ;
#497=AXIS2_PLACEMENT_3D('Plane Axis2P3D',#494,#495,#496) ;
#528=AXIS2_PLACEMENT_3D('Plane Axis2P3D',#525,#526,#527) ;
#559=AXIS2_PLACEMENT_3D('Plane Axis2P3D',#556,#557,#558) ;
#581=AXIS2_PLACEMENT_3D('Plane Axis2P3D',#578,#579,#580) ;
#592=AXIS2_PLACEMENT_3D('Circle Axis2P3D',#590,#591,$) ;
#634=AXIS2_PLACEMENT_3D('Cylinder Axis2P3D',#631,#632,#633) ;
#652=AXIS2_PLACEMENT_3D('Circle Axis2P3D',#650,#651,$) ;
#665=AXIS2_PLACEMENT_3D('Plane Axis2P3D',#662,#663,#664) ;
#697=AXIS2_PLACEMENT_3D('Circle Axis2P3D',#695,#696,$) ;
#728=AXIS2_PLACEMENT_3D('Plane Axis2P3D',#725,#726,#727) ;
#746=AXIS2_PLACEMENT_3D('Circle Axis2P3D',#744,#745,$) ;
#762=AXIS2_PLACEMENT_3D('Plane Axis2P3D',#759,#760,#761) ;
#766=AXIS2_PLACEMENT_3D('Circle Axis2P3D',#764,#765,$) ;
#796=AXIS2_PLACEMENT_3D('Plane Axis2P3D',#793,#794,#795) ;
#829=AXIS2_PLACEMENT_3D('Plane Axis2P3D',#826,#827,#828) ;
#862=AXIS2_PLACEMENT_3D('Plane Axis2P3D',#859,#860,#861) ;
#886=AXIS2_PLACEMENT_3D('Cylinder Axis2P3D',#883,#884,#885) ;
#890=AXIS2_PLACEMENT_3D('Circle Axis2P3D',#888,#889,$) ;
#910=AXIS2_PLACEMENT_3D('Plane Axis2P3D',#907,#908,#909) ;
#927=AXIS2_PLACEMENT_3D('Plane Axis2P3D',#924,#925,#926) ;
#940=AXIS2_PLACEMENT_3D('Circle Axis2P3D',#938,#939,$) ;
#1008=AXIS2_PLACEMENT_3D('Circle Axis2P3D',#1006,#1007,$) ;
#1013=AXIS2_PLACEMENT_3D('Circle Axis2P3D',#1011,#1012,$) ;
#1026=AXIS2_PLACEMENT_3D('Cylinder Axis2P3D',#1023,#1024,#1025) ;
#1047=AXIS2_PLACEMENT_3D('Cylinder Axis2P3D',#1044,#1045,#1046) ;
#1068=AXIS2_PLACEMENT_3D('Cylinder Axis2P3D',#1065,#1066,#1067) ;
#1080=AXIS2_PLACEMENT_3D('Cylinder Axis2P3D',#1077,#1078,#1079) ;
#40=PRODUCT_DEFINITION_SHAPE(' ',' ',#14) ;
#31=APPROVAL_PERSON_ORGANIZATION(#25,#21,#19) ;
#25=PERSON_AND_ORGANIZATION(#22,#23) ;
#22=PERSON(' ',' ',' ',$,$,$) ;
#23=ORGANIZATION(' ',' ',' ') ;
#21=APPROVAL(#20,' ') ;
#20=APPROVAL_STATUS('not_yet_approved') ;
#19=APPROVAL_ROLE('APPROVER') ;
#13=DATE_AND_TIME(#11,#12) ;
#12=LOCAL_TIME(15,57,44.,#10) ;
#10=COORDINATED_UNIVERSAL_TIME_OFFSET(0,0,.AHEAD.) ;
#86=ORIENTED_EDGE('',*,*,#65,.T.) ;
#87=ORIENTED_EDGE('',*,*,#72,.F.) ;
#88=ORIENTED_EDGE('',*,*,#79,.F.) ;
#89=ORIENTED_EDGE('',*,*,#84,.T.) ;
#103=ORIENTED_EDGE('',*,*,#96,.T.) ;
#104=ORIENTED_EDGE('',*,*,#84,.F.) ;
#105=ORIENTED_EDGE('',*,*,#101,.F.) ;
#106=ORIENTED_EDGE('',*,*,#72,.T.) ;
#143=ORIENTED_EDGE('',*,*,#122,.T.) ;
#144=ORIENTED_EDGE('',*,*,#129,.F.) ;
#145=ORIENTED_EDGE('',*,*,#136,.T.) ;
#146=ORIENTED_EDGE('',*,*,#141,.T.) ;
#174=ORIENTED_EDGE('',*,*,#162,.T.) ;
#175=ORIENTED_EDGE('',*,*,#167,.F.) ;
#176=ORIENTED_EDGE('',*,*,#141,.F.) ;
#177=ORIENTED_EDGE('',*,*,#172,.T.) ;
#205=ORIENTED_EDGE('',*,*,#191,.T.) ;
#206=ORIENTED_EDGE('',*,*,#162,.F.) ;
#207=ORIENTED_EDGE('',*,*,#198,.T.) ;
#208=ORIENTED_EDGE('',*,*,#203,.T.) ;
#236=ORIENTED_EDGE('',*,*,#222,.F.) ;
#237=ORIENTED_EDGE('',*,*,#203,.F.) ;
#238=ORIENTED_EDGE('',*,*,#229,.T.) ;
#239=ORIENTED_EDGE('',*,*,#234,.T.) ;
#267=ORIENTED_EDGE('',*,*,#253,.T.) ;
#268=ORIENTED_EDGE('',*,*,#234,.F.) ;
#269=ORIENTED_EDGE('',*,*,#260,.T.) ;
#270=ORIENTED_EDGE('',*,*,#265,.T.) ;
#298=ORIENTED_EDGE('',*,*,#286,.T.) ;
#299=ORIENTED_EDGE('',*,*,#291,.F.) ;
#300=ORIENTED_EDGE('',*,*,#265,.F.) ;
#301=ORIENTED_EDGE('',*,*,#296,.T.) ;
#329=ORIENTED_EDGE('',*,*,#315,.T.) ;
#330=ORIENTED_EDGE('',*,*,#286,.F.) ;
#331=ORIENTED_EDGE('',*,*,#322,.T.) ;
#332=ORIENTED_EDGE('',*,*,#327,.T.) ;
#369=ORIENTED_EDGE('',*,*,#348,.T.) ;
#370=ORIENTED_EDGE('',*,*,#355,.F.) ;
#371=ORIENTED_EDGE('',*,*,#362,.F.) ;
#372=ORIENTED_EDGE('',*,*,#367,.T.) ;
#386=ORIENTED_EDGE('',*,*,#379,.T.) ;
#387=ORIENTED_EDGE('',*,*,#367,.F.) ;
#388=ORIENTED_EDGE('',*,*,#384,.F.) ;
#389=ORIENTED_EDGE('',*,*,#355,.T.) ;
#426=ORIENTED_EDGE('',*,*,#405,.T.) ;
#427=ORIENTED_EDGE('',*,*,#412,.F.) ;
#428=ORIENTED_EDGE('',*,*,#419,.F.) ;
#429=ORIENTED_EDGE('',*,*,#424,.T.) ;
#457=ORIENTED_EDGE('',*,*,#443,.T.) ;
#458=ORIENTED_EDGE('',*,*,#424,.F.) ;
#459=ORIENTED_EDGE('',*,*,#450,.F.) ;
#460=ORIENTED_EDGE('',*,*,#455,.T.) ;
#488=ORIENTED_EDGE('',*,*,#474,.T.) ;
#489=ORIENTED_EDGE('',*,*,#455,.F.) ;
#490=ORIENTED_EDGE('',*,*,#481,.F.) ;
#491=ORIENTED_EDGE('',*,*,#486,.T.) ;
#519=ORIENTED_EDGE('',*,*,#505,.T.) ;
#520=ORIENTED_EDGE('',*,*,#486,.F.) ;
#521=ORIENTED_EDGE('',*,*,#512,.F.) ;
#522=ORIENTED_EDGE('',*,*,#517,.T.) ;
#550=ORIENTED_EDGE('',*,*,#536,.T.) ;
#551=ORIENTED_EDGE('',*,*,#517,.F.) ;
#552=ORIENTED_EDGE('',*,*,#543,.F.) ;
#553=ORIENTED_EDGE('',*,*,#548,.T.) ;
#572=ORIENTED_EDGE('',*,*,#565,.T.) ;
#573=ORIENTED_EDGE('',*,*,#548,.F.) ;
#574=ORIENTED_EDGE('',*,*,#570,.F.) ;
#575=ORIENTED_EDGE('',*,*,#412,.T.) ;
#603=ORIENTED_EDGE('',*,*,#589,.T.) ;
#604=ORIENTED_EDGE('',*,*,#596,.F.) ;
#605=ORIENTED_EDGE('',*,*,#601,.T.) ;
#606=ORIENTED_EDGE('',*,*,#122,.F.) ;
#607=ORIENTED_EDGE('',*,*,#167,.T.) ;
#608=ORIENTED_EDGE('',*,*,#191,.F.) ;
#609=ORIENTED_EDGE('',*,*,#222,.T.) ;
#610=ORIENTED_EDGE('',*,*,#253,.F.) ;
#611=ORIENTED_EDGE('',*,*,#291,.T.) ;
#612=ORIENTED_EDGE('',*,*,#315,.F.) ;
#615=ORIENTED_EDGE('',*,*,#65,.F.) ;
#616=ORIENTED_EDGE('',*,*,#96,.F.) ;
#619=ORIENTED_EDGE('',*,*,#348,.F.) ;
#620=ORIENTED_EDGE('',*,*,#379,.F.) ;
#623=ORIENTED_EDGE('',*,*,#405,.F.) ;
#624=ORIENTED_EDGE('',*,*,#443,.F.) ;
#625=ORIENTED_EDGE('',*,*,#474,.F.) ;
#626=ORIENTED_EDGE('',*,*,#505,.F.) ;
#627=ORIENTED_EDGE('',*,*,#536,.F.) ;
#628=ORIENTED_EDGE('',*,*,#565,.F.) ;
#656=ORIENTED_EDGE('',*,*,#642,.T.) ;
#657=ORIENTED_EDGE('',*,*,#596,.T.) ;
#658=ORIENTED_EDGE('',*,*,#649,.F.) ;
#659=ORIENTED_EDGE('',*,*,#654,.F.) ;
#715=ORIENTED_EDGE('',*,*,#673,.T.) ;
#716=ORIENTED_EDGE('',*,*,#654,.T.) ;
#717=ORIENTED_EDGE('',*,*,#680,.T.) ;
#718=ORIENTED_EDGE('',*,*,#687,.T.) ;
#719=ORIENTED_EDGE('',*,*,#694,.T.) ;
#720=ORIENTED_EDGE('',*,*,#701,.T.) ;
#721=ORIENTED_EDGE('',*,*,#708,.T.) ;
#722=ORIENTED_EDGE('',*,*,#713,.T.) ;
#750=ORIENTED_EDGE('',*,*,#736,.T.) ;
#751=ORIENTED_EDGE('',*,*,#129,.T.) ;
#752=ORIENTED_EDGE('',*,*,#601,.F.) ;
#753=ORIENTED_EDGE('',*,*,#642,.F.) ;
#754=ORIENTED_EDGE('',*,*,#673,.F.) ;
#755=ORIENTED_EDGE('',*,*,#743,.F.) ;
#756=ORIENTED_EDGE('',*,*,#748,.T.) ;
#784=ORIENTED_EDGE('',*,*,#772,.T.) ;
#785=ORIENTED_EDGE('',*,*,#777,.F.) ;
#786=ORIENTED_EDGE('',*,*,#680,.F.) ;
#787=ORIENTED_EDGE('',*,*,#649,.T.) ;
#788=ORIENTED_EDGE('',*,*,#589,.F.) ;
#789=ORIENTED_EDGE('',*,*,#327,.F.) ;
#790=ORIENTED_EDGE('',*,*,#782,.T.) ;
#819=ORIENTED_EDGE('',*,*,#804,.T.) ;
#820=ORIENTED_EDGE('',*,*,#687,.F.) ;
#821=ORIENTED_EDGE('',*,*,#777,.T.) ;
#822=ORIENTED_EDGE('',*,*,#811,.T.) ;
#823=ORIENTED_EDGE('',*,*,#817,.T.) ;
#852=ORIENTED_EDGE('',*,*,#840,.T.) ;
#853=ORIENTED_EDGE('',*,*,#845,.T.) ;
#854=ORIENTED_EDGE('',*,*,#743,.T.) ;
#855=ORIENTED_EDGE('',*,*,#713,.F.) ;
#856=ORIENTED_EDGE('',*,*,#850,.T.) ;
#877=ORIENTED_EDGE('',*,*,#850,.F.) ;
#878=ORIENTED_EDGE('',*,*,#708,.F.) ;
#879=ORIENTED_EDGE('',*,*,#870,.F.) ;
#880=ORIENTED_EDGE('',*,*,#875,.T.) ;
#901=ORIENTED_EDGE('',*,*,#894,.T.) ;
#902=ORIENTED_EDGE('',*,*,#870,.T.) ;
#903=ORIENTED_EDGE('',*,*,#701,.F.) ;
#904=ORIENTED_EDGE('',*,*,#899,.F.) ;
#918=ORIENTED_EDGE('',*,*,#899,.T.) ;
#919=ORIENTED_EDGE('',*,*,#694,.F.) ;
#920=ORIENTED_EDGE('',*,*,#804,.F.) ;
#921=ORIENTED_EDGE('',*,*,#916,.T.) ;
#963=ORIENTED_EDGE('',*,*,#937,.F.) ;
#964=ORIENTED_EDGE('',*,*,#944,.F.) ;
#965=ORIENTED_EDGE('',*,*,#951,.F.) ;
#966=ORIENTED_EDGE('',*,*,#956,.T.) ;
#967=ORIENTED_EDGE('',*,*,#782,.F.) ;
#968=ORIENTED_EDGE('',*,*,#322,.F.) ;
#969=ORIENTED_EDGE('',*,*,#296,.F.) ;
#970=ORIENTED_EDGE('',*,*,#260,.F.) ;
#971=ORIENTED_EDGE('',*,*,#229,.F.) ;
#972=ORIENTED_EDGE('',*,*,#198,.F.) ;
#973=ORIENTED_EDGE('',*,*,#172,.F.) ;
#974=ORIENTED_EDGE('',*,*,#136,.F.) ;
#975=ORIENTED_EDGE('',*,*,#736,.F.) ;
#976=ORIENTED_EDGE('',*,*,#961,.T.) ;
#979=ORIENTED_EDGE('',*,*,#101,.T.) ;
#980=ORIENTED_EDGE('',*,*,#79,.T.) ;
#983=ORIENTED_EDGE('',*,*,#384,.T.) ;
#984=ORIENTED_EDGE('',*,*,#362,.T.) ;
#987=ORIENTED_EDGE('',*,*,#570,.T.) ;
#988=ORIENTED_EDGE('',*,*,#543,.T.) ;
#989=ORIENTED_EDGE('',*,*,#512,.T.) ;
#990=ORIENTED_EDGE('',*,*,#481,.T.) ;
#991=ORIENTED_EDGE('',*,*,#450,.T.) ;
#992=ORIENTED_EDGE('',*,*,#419,.T.) ;
#1017=ORIENTED_EDGE('',*,*,#944,.T.) ;
#1018=ORIENTED_EDGE('',*,*,#1010,.T.) ;
#1019=ORIENTED_EDGE('',*,*,#894,.F.) ;
#1020=ORIENTED_EDGE('',*,*,#1015,.F.) ;
#1037=ORIENTED_EDGE('',*,*,#1035,.F.) ;
#1038=ORIENTED_EDGE('',*,*,#840,.F.) ;
#1039=ORIENTED_EDGE('',*,*,#875,.F.) ;
#1040=ORIENTED_EDGE('',*,*,#1010,.F.) ;
#1041=ORIENTED_EDGE('',*,*,#937,.T.) ;
#1058=ORIENTED_EDGE('',*,*,#817,.F.) ;
#1059=ORIENTED_EDGE('',*,*,#1056,.F.) ;
#1060=ORIENTED_EDGE('',*,*,#951,.T.) ;
#1061=ORIENTED_EDGE('',*,*,#1015,.T.) ;
#1062=ORIENTED_EDGE('',*,*,#916,.F.) ;
#1071=ORIENTED_EDGE('',*,*,#1035,.T.) ;
#1072=ORIENTED_EDGE('',*,*,#961,.F.) ;
#1073=ORIENTED_EDGE('',*,*,#748,.F.) ;
#1074=ORIENTED_EDGE('',*,*,#845,.F.) ;
#1083=ORIENTED_EDGE('',*,*,#956,.F.) ;
#1084=ORIENTED_EDGE('',*,*,#1056,.T.) ;
#1085=ORIENTED_EDGE('',*,*,#811,.F.) ;
#1086=ORIENTED_EDGE('',*,*,#772,.F.) ;
#617=FACE_BOUND('',#614,.T.) ;
#621=FACE_BOUND('',#618,.T.) ;
#629=FACE_BOUND('',#622,.T.) ;
#981=FACE_BOUND('',#978,.T.) ;
#985=FACE_BOUND('',#982,.T.) ;
#993=FACE_BOUND('',#986,.T.) ;
#51=CLOSED_SHELL('Closed Shell',(#91,#108,#148,#179,#210,#241,#272,#303,#334,#374,#391,#431,#462,#493,#524,#555,#577,#630,#661,#724,#758,#792,#825,#858,#882,#906,#923,#994,#1022,#1043,#1064,#1076,#1088)) ;
#68=VECTOR('Line Direction',#67,1.) ;
#82=VECTOR('Line Direction',#81,1.) ;
#125=VECTOR('Line Direction',#124,1.) ;
#139=VECTOR('Line Direction',#138,1.) ;
#156=VECTOR('Line Direction',#155,1.) ;
#165=VECTOR('Line Direction',#164,1.) ;
#170=VECTOR('Line Direction',#169,1.) ;
#201=VECTOR('Line Direction',#200,1.) ;
#218=VECTOR('Line Direction',#217,1.) ;
#225=VECTOR('Line Direction',#224,1.) ;
#232=VECTOR('Line Direction',#231,1.) ;
#263=VECTOR('Line Direction',#262,1.) ;
#280=VECTOR('Line Direction',#279,1.) ;
#289=VECTOR('Line Direction',#288,1.) ;
#294=VECTOR('Line Direction',#293,1.) ;
#325=VECTOR('Line Direction',#324,1.) ;
#351=VECTOR('Line Direction',#350,1.) ;
#365=VECTOR('Line Direction',#364,1.) ;
#399=VECTOR('Line Direction',#398,1.) ;
#408=VECTOR('Line Direction',#407,1.) ;
#415=VECTOR('Line Direction',#414,1.) ;
#422=VECTOR('Line Direction',#421,1.) ;
#439=VECTOR('Line Direction',#438,1.) ;
#446=VECTOR('Line Direction',#445,1.) ;
#453=VECTOR('Line Direction',#452,1.) ;
#470=VECTOR('Line Direction',#469,1.) ;
#477=VECTOR('Line Direction',#476,1.) ;
#484=VECTOR('Line Direction',#483,1.) ;
#501=VECTOR('Line Direction',#500,1.) ;
#508=VECTOR('Line Direction',#507,1.) ;
#515=VECTOR('Line Direction',#514,1.) ;
#532=VECTOR('Line Direction',#531,1.) ;
#539=VECTOR('Line Direction',#538,1.) ;
#546=VECTOR('Line Direction',#545,1.) ;
#563=VECTOR('Line Direction',#562,1.) ;
#568=VECTOR('Line Direction',#567,1.) ;
#585=VECTOR('Line Direction',#584,1.) ;
#599=VECTOR('Line Direction',#598,1.) ;
#638=VECTOR('Line Direction',#637,1.) ;
#645=VECTOR('Line Direction',#644,1.) ;
#669=VECTOR('Line Direction',#668,1.) ;
#676=VECTOR('Line Direction',#675,1.) ;
#683=VECTOR('Line Direction',#682,1.) ;
#690=VECTOR('Line Direction',#689,1.) ;
#704=VECTOR('Line Direction',#703,1.) ;
#711=VECTOR('Line Direction',#710,1.) ;
#732=VECTOR('Line Direction',#731,1.) ;
#739=VECTOR('Line Direction',#738,1.) ;
#775=VECTOR('Line Direction',#774,1.) ;
#780=VECTOR('Line Direction',#779,1.) ;
#800=VECTOR('Line Direction',#799,1.) ;
#807=VECTOR('Line Direction',#806,1.) ;
#843=VECTOR('Line Direction',#842,1.) ;
#848=VECTOR('Line Direction',#847,1.) ;
#866=VECTOR('Line Direction',#865,1.) ;
#873=VECTOR('Line Direction',#872,1.) ;
#897=VECTOR('Line Direction',#896,1.) ;
#914=VECTOR('Line Direction',#913,1.) ;
#931=VECTOR('Line Direction',#930,1.) ;
#947=VECTOR('Line Direction',#946,1.) ;
#954=VECTOR('Line Direction',#953,1.) ;
#959=VECTOR('Line Direction',#958,1.) ;
#1090=ADVANCED_BREP_SHAPE_REPRESENTATION('NONE',(#1089),#46) ;
#49=SHAPE_REPRESENTATION(' ',(#48),#46) ;
#91=ADVANCED_FACE('Hauptk\X2\00F6\X0\rper',(#90),#56,.F.) ;
#108=ADVANCED_FACE('Hauptk\X2\00F6\X0\rper',(#107),#56,.F.) ;
#148=ADVANCED_FACE('Hauptk\X2\00F6\X0\rper',(#147),#113,.T.) ;
#179=ADVANCED_FACE('Hauptk\X2\00F6\X0\rper',(#178),#153,.F.) ;
#210=ADVANCED_FACE('Hauptk\X2\00F6\X0\rper',(#209),#184,.T.) ;
#241=ADVANCED_FACE('Hauptk\X2\00F6\X0\rper',(#240),#215,.T.) ;
#272=ADVANCED_FACE('Hauptk\X2\00F6\X0\rper',(#271),#246,.T.) ;
#303=ADVANCED_FACE('Hauptk\X2\00F6\X0\rper',(#302),#277,.F.) ;
#334=ADVANCED_FACE('Hauptk\X2\00F6\X0\rper',(#333),#308,.T.) ;
#374=ADVANCED_FACE('Hauptk\X2\00F6\X0\rper',(#373),#339,.F.) ;
#391=ADVANCED_FACE('Hauptk\X2\00F6\X0\rper',(#390),#339,.F.) ;
#431=ADVANCED_FACE('Hauptk\X2\00F6\X0\rper',(#430),#396,.T.) ;
#462=ADVANCED_FACE('Hauptk\X2\00F6\X0\rper',(#461),#436,.F.) ;
#493=ADVANCED_FACE('Hauptk\X2\00F6\X0\rper',(#492),#467,.T.) ;
#524=ADVANCED_FACE('Hauptk\X2\00F6\X0\rper',(#523),#498,.T.) ;
#555=ADVANCED_FACE('Hauptk\X2\00F6\X0\rper',(#554),#529,.T.) ;
#577=ADVANCED_FACE('Hauptk\X2\00F6\X0\rper',(#576),#560,.F.) ;
#630=ADVANCED_FACE('Hauptk\X2\00F6\X0\rper',(#613,#617,#621,#629),#582,.T.) ;
#661=ADVANCED_FACE('Hauptk\X2\00F6\X0\rper',(#660),#635,.T.) ;
#724=ADVANCED_FACE('Hauptk\X2\00F6\X0\rper',(#723),#666,.T.) ;
#758=ADVANCED_FACE('Hauptk\X2\00F6\X0\rper',(#757),#729,.F.) ;
#792=ADVANCED_FACE('Hauptk\X2\00F6\X0\rper',(#791),#763,.F.) ;
#825=ADVANCED_FACE('Hauptk\X2\00F6\X0\rper',(#824),#797,.T.) ;
#858=ADVANCED_FACE('Hauptk\X2\00F6\X0\rper',(#857),#830,.F.) ;
#882=ADVANCED_FACE('Hauptk\X2\00F6\X0\rper',(#881),#863,.T.) ;
#906=ADVANCED_FACE('Hauptk\X2\00F6\X0\rper',(#905),#887,.F.) ;
#923=ADVANCED_FACE('Hauptk\X2\00F6\X0\rper',(#922),#911,.T.) ;
#994=ADVANCED_FACE('Hauptk\X2\00F6\X0\rper',(#977,#981,#985,#993),#928,.F.) ;
#1022=ADVANCED_FACE('Hauptk\X2\00F6\X0\rper',(#1021),#1005,.T.) ;
#1043=ADVANCED_FACE('Hauptk\X2\00F6\X0\rper',(#1042),#1027,.F.) ;
#1064=ADVANCED_FACE('Hauptk\X2\00F6\X0\rper',(#1063),#1048,.F.) ;
#1076=ADVANCED_FACE('Hauptk\X2\00F6\X0\rper',(#1075),#1069,.F.) ;
#1088=ADVANCED_FACE('Hauptk\X2\00F6\X0\rper',(#1087),#1081,.F.) ;
#4=APPLICATION_PROTOCOL_DEFINITION('international standard','config_control_design',1994,#1) ;
#32=APPROVAL_DATE_TIME(#13,#21) ;
#1004=AXIS1_PLACEMENT('Revolution Surface Axis1P',#1002,#1003) ;
#812=B_SPLINE_CURVE_WITH_KNOTS('',3,(#813,#814,#815,#816),.UNSPECIFIED.,.F.,.U.,(4,4),(0.,1.07770761466),.UNSPECIFIED.) ;
#831=B_SPLINE_CURVE_WITH_KNOTS('',3,(#832,#833,#834,#835),.UNSPECIFIED.,.F.,.U.,(4,4),(0.,1.07770761456),.UNSPECIFIED.) ;
#995=B_SPLINE_CURVE_WITH_KNOTS('',5,(#996,#997,#998,#999,#1000,#1001),.UNSPECIFIED.,.F.,.U.,(6,6),(0.,3.14159265359),.UNSPECIFIED.) ;
#1028=B_SPLINE_CURVE_WITH_KNOTS('',5,(#1029,#1030,#1031,#1032,#1033,#1034),.UNSPECIFIED.,.F.,.U.,(6,6),(0.,6.22019253989),.UNSPECIFIED.) ;
#1049=B_SPLINE_CURVE_WITH_KNOTS('',5,(#1050,#1051,#1052,#1053,#1054,#1055),.UNSPECIFIED.,.F.,.U.,(6,6),(0.,6.22019253978),.UNSPECIFIED.) ;
#1089=MANIFOLD_SOLID_BREP('Hauptk\X2\00F6\X0\rper',#51) ;
#11=CALENDAR_DATE(2020,30,5) ;
#30=CC_DESIGN_APPROVAL(#21,(#16,#6,#14)) ;
#18=CC_DESIGN_DATE_AND_TIME_ASSIGNMENT(#13,#17,(#16)) ;
#29=CC_DESIGN_DATE_AND_TIME_ASSIGNMENT(#13,#28,(#14)) ;
#17=DATE_TIME_ROLE('classification_date') ;
#28=DATE_TIME_ROLE('creation_date') ;
#27=CC_DESIGN_PERSON_AND_ORGANIZATION_ASSIGNMENT(#25,#26,(#16)) ;
#33=CC_DESIGN_PERSON_AND_ORGANIZATION_ASSIGNMENT(#25,#34,(#6)) ;
#35=CC_DESIGN_PERSON_AND_ORGANIZATION_ASSIGNMENT(#25,#36,(#6,#14)) ;
#37=CC_DESIGN_PERSON_AND_ORGANIZATION_ASSIGNMENT(#25,#38,(#5)) ;
#26=PERSON_AND_ORGANIZATION_ROLE('classification_officer') ;
#34=PERSON_AND_ORGANIZATION_ROLE('design_supplier') ;
#36=PERSON_AND_ORGANIZATION_ROLE('creator') ;
#38=PERSON_AND_ORGANIZATION_ROLE('design_owner') ;
#39=CC_DESIGN_SECURITY_CLASSIFICATION(#16,(#6)) ;
#60=CIRCLE('generated circle',#59,2.25) ;
#76=CIRCLE('generated circle',#75,2.25) ;
#95=CIRCLE('generated circle',#94,2.25) ;
#100=CIRCLE('generated circle',#99,2.25) ;
#117=CIRCLE('generated circle',#116,5.) ;
#133=CIRCLE('generated circle',#132,5.) ;
#188=CIRCLE('generated circle',#187,5.) ;
#195=CIRCLE('generated circle',#194,5.) ;
#250=CIRCLE('generated circle',#249,5.) ;
#257=CIRCLE('generated circle',#256,5.) ;
#312=CIRCLE('generated circle',#311,5.) ;
#319=CIRCLE('generated circle',#318,5.) ;
#343=CIRCLE('generated circle',#342,2.25) ;
#359=CIRCLE('generated circle',#358,2.25) ;
#378=CIRCLE('generated circle',#377,2.25) ;
#383=CIRCLE('generated circle',#382,2.25) ;
#593=CIRCLE('generated circle',#592,5.) ;
#653=CIRCLE('generated circle',#652,5.) ;
#698=CIRCLE('generated circle',#697,3.) ;
#747=CIRCLE('generated circle',#746,5.) ;
#767=CIRCLE('generated circle',#766,5.) ;
#891=CIRCLE('generated circle',#890,3.) ;
#941=CIRCLE('generated circle',#940,1.) ;
#1009=CIRCLE('generated circle',#1008,2.) ;
#1014=CIRCLE('generated circle',#1013,2.) ;
#1091=SHAPE_REPRESENTATION_RELATIONSHIP(' ',' ',#49,#1090) ;
#56=CYLINDRICAL_SURFACE('generated cylinder',#55,2.25) ;
#113=CYLINDRICAL_SURFACE('generated cylinder',#112,5.) ;
#184=CYLINDRICAL_SURFACE('generated cylinder',#183,5.) ;
#246=CYLINDRICAL_SURFACE('generated cylinder',#245,5.) ;
#308=CYLINDRICAL_SURFACE('generated cylinder',#307,5.) ;
#339=CYLINDRICAL_SURFACE('generated cylinder',#338,2.25) ;
#635=CYLINDRICAL_SURFACE('generated cylinder',#634,5.) ;
#887=CYLINDRICAL_SURFACE('generated cylinder',#886,3.) ;
#1027=CYLINDRICAL_SURFACE('generated cylinder',#1026,2.) ;
#1048=CYLINDRICAL_SURFACE('generated cylinder',#1047,2.) ;
#1069=CYLINDRICAL_SURFACE('generated cylinder',#1068,5.) ;
#1081=CYLINDRICAL_SURFACE('generated cylinder',#1080,5.) ;
#3=DESIGN_CONTEXT(' ',#1,'design') ;
#65=EDGE_CURVE('',#62,#64,#60,.T.) ;
#72=EDGE_CURVE('',#71,#64,#69,.T.) ;
#79=EDGE_CURVE('',#78,#71,#76,.T.) ;
#84=EDGE_CURVE('',#78,#62,#83,.T.) ;
#96=EDGE_CURVE('',#64,#62,#95,.T.) ;
#101=EDGE_CURVE('',#71,#78,#100,.T.) ;
#122=EDGE_CURVE('',#119,#121,#117,.F.) ;
#129=EDGE_CURVE('',#128,#121,#126,.T.) ;
#136=EDGE_CURVE('',#128,#135,#133,.T.) ;
#141=EDGE_CURVE('',#135,#119,#140,.T.) ;
#162=EDGE_CURVE('',#159,#161,#157,.T.) ;
#167=EDGE_CURVE('',#119,#161,#166,.F.) ;
#172=EDGE_CURVE('',#135,#159,#171,.F.) ;
#191=EDGE_CURVE('',#190,#161,#188,.F.) ;
#198=EDGE_CURVE('',#159,#197,#195,.T.) ;
#203=EDGE_CURVE('',#197,#190,#202,.T.) ;
#222=EDGE_CURVE('',#190,#221,#219,.T.) ;
#229=EDGE_CURVE('',#197,#228,#226,.T.) ;
#234=EDGE_CURVE('',#228,#221,#233,.T.) ;
#253=EDGE_CURVE('',#252,#221,#250,.F.) ;
#260=EDGE_CURVE('',#228,#259,#257,.T.) ;
#265=EDGE_CURVE('',#259,#252,#264,.T.) ;
#286=EDGE_CURVE('',#283,#285,#281,.T.) ;
#291=EDGE_CURVE('',#252,#285,#290,.F.) ;
#296=EDGE_CURVE('',#259,#283,#295,.F.) ;
#315=EDGE_CURVE('',#314,#285,#312,.F.) ;
#322=EDGE_CURVE('',#283,#321,#319,.T.) ;
#327=EDGE_CURVE('',#321,#314,#326,.T.) ;
#348=EDGE_CURVE('',#345,#347,#343,.T.) ;
#355=EDGE_CURVE('',#354,#347,#352,.T.) ;
#362=EDGE_CURVE('',#361,#354,#359,.T.) ;
#367=EDGE_CURVE('',#361,#345,#366,.T.) ;
#379=EDGE_CURVE('',#347,#345,#378,.T.) ;
#384=EDGE_CURVE('',#354,#361,#383,.T.) ;
#405=EDGE_CURVE('',#402,#404,#400,.F.) ;
#412=EDGE_CURVE('',#411,#404,#409,.T.) ;
#419=EDGE_CURVE('',#418,#411,#416,.F.) ;
#424=EDGE_CURVE('',#418,#402,#423,.T.) ;
#443=EDGE_CURVE('',#442,#402,#440,.T.) ;
#450=EDGE_CURVE('',#449,#418,#447,.T.) ;
#455=EDGE_CURVE('',#449,#442,#454,.T.) ;
#474=EDGE_CURVE('',#473,#442,#471,.F.) ;
#481=EDGE_CURVE('',#480,#449,#478,.F.) ;
#486=EDGE_CURVE('',#480,#473,#485,.T.) ;
#505=EDGE_CURVE('',#504,#473,#502,.F.) ;
#512=EDGE_CURVE('',#511,#480,#509,.F.) ;
#517=EDGE_CURVE('',#511,#504,#516,.T.) ;
#536=EDGE_CURVE('',#535,#504,#533,.F.) ;
#543=EDGE_CURVE('',#542,#511,#540,.F.) ;
#548=EDGE_CURVE('',#542,#535,#547,.T.) ;
#565=EDGE_CURVE('',#404,#535,#564,.T.) ;
#570=EDGE_CURVE('',#411,#542,#569,.T.) ;
#589=EDGE_CURVE('',#314,#588,#586,.F.) ;
#596=EDGE_CURVE('',#595,#588,#593,.F.) ;
#601=EDGE_CURVE('',#595,#121,#600,.F.) ;
#642=EDGE_CURVE('',#641,#595,#639,.F.) ;
#649=EDGE_CURVE('',#648,#588,#646,.F.) ;
#654=EDGE_CURVE('',#641,#648,#653,.T.) ;
#673=EDGE_CURVE('',#672,#641,#670,.F.) ;
#680=EDGE_CURVE('',#648,#679,#677,.F.) ;
#687=EDGE_CURVE('',#679,#686,#684,.T.) ;
#694=EDGE_CURVE('',#686,#693,#691,.T.) ;
#701=EDGE_CURVE('',#693,#700,#698,.F.) ;
#708=EDGE_CURVE('',#700,#707,#705,.T.) ;
#713=EDGE_CURVE('',#707,#672,#712,.F.) ;
#736=EDGE_CURVE('',#735,#128,#733,.F.) ;
#743=EDGE_CURVE('',#742,#672,#740,.F.) ;
#748=EDGE_CURVE('',#742,#735,#747,.T.) ;
#772=EDGE_CURVE('',#769,#771,#767,.T.) ;
#777=EDGE_CURVE('',#679,#771,#776,.T.) ;
#782=EDGE_CURVE('',#321,#769,#781,.F.) ;
#804=EDGE_CURVE('',#803,#686,#801,.T.) ;
#811=EDGE_CURVE('',#771,#810,#808,.T.) ;
#817=EDGE_CURVE('',#810,#803,#812,.F.) ;
#840=EDGE_CURVE('',#837,#839,#831,.T.) ;
#845=EDGE_CURVE('',#839,#742,#844,.F.) ;
#850=EDGE_CURVE('',#707,#837,#849,.F.) ;
#870=EDGE_CURVE('',#869,#700,#867,.T.) ;
#875=EDGE_CURVE('',#869,#837,#874,.T.) ;
#894=EDGE_CURVE('',#893,#869,#891,.F.) ;
#899=EDGE_CURVE('',#893,#693,#898,.T.) ;
#916=EDGE_CURVE('',#803,#893,#915,.T.) ;
#937=EDGE_CURVE('',#934,#936,#932,.T.) ;
#944=EDGE_CURVE('',#943,#934,#941,.T.) ;
#951=EDGE_CURVE('',#950,#943,#948,.T.) ;
#956=EDGE_CURVE('',#950,#769,#955,.F.) ;
#961=EDGE_CURVE('',#735,#936,#960,.T.) ;
#1010=EDGE_CURVE('',#934,#869,#1009,.F.) ;
#1015=EDGE_CURVE('',#943,#893,#1014,.F.) ;
#1035=EDGE_CURVE('',#839,#936,#1028,.T.) ;
#1056=EDGE_CURVE('',#950,#810,#1049,.F.) ;
#85=EDGE_LOOP('',(#86,#87,#88,#89)) ;
#102=EDGE_LOOP('',(#103,#104,#105,#106)) ;
#142=EDGE_LOOP('',(#143,#144,#145,#146)) ;
#173=EDGE_LOOP('',(#174,#175,#176,#177)) ;
#204=EDGE_LOOP('',(#205,#206,#207,#208)) ;
#235=EDGE_LOOP('',(#236,#237,#238,#239)) ;
#266=EDGE_LOOP('',(#267,#268,#269,#270)) ;
#297=EDGE_LOOP('',(#298,#299,#300,#301)) ;
#328=EDGE_LOOP('',(#329,#330,#331,#332)) ;
#368=EDGE_LOOP('',(#369,#370,#371,#372)) ;
#385=EDGE_LOOP('',(#386,#387,#388,#389)) ;
#425=EDGE_LOOP('',(#426,#427,#428,#429)) ;
#456=EDGE_LOOP('',(#457,#458,#459,#460)) ;
#487=EDGE_LOOP('',(#488,#489,#490,#491)) ;
#518=EDGE_LOOP('',(#519,#520,#521,#522)) ;
#549=EDGE_LOOP('',(#550,#551,#552,#553)) ;
#571=EDGE_LOOP('',(#572,#573,#574,#575)) ;
#602=EDGE_LOOP('',(#603,#604,#605,#606,#607,#608,#609,#610,#611,#612)) ;
#614=EDGE_LOOP('',(#615,#616)) ;
#618=EDGE_LOOP('',(#619,#620)) ;
#622=EDGE_LOOP('',(#623,#624,#625,#626,#627,#628)) ;
#655=EDGE_LOOP('',(#656,#657,#658,#659)) ;
#714=EDGE_LOOP('',(#715,#716,#717,#718,#719,#720,#721,#722)) ;
#749=EDGE_LOOP('',(#750,#751,#752,#753,#754,#755,#756)) ;
#783=EDGE_LOOP('',(#784,#785,#786,#787,#788,#789,#790)) ;
#818=EDGE_LOOP('',(#819,#820,#821,#822,#823)) ;
#851=EDGE_LOOP('',(#852,#853,#854,#855,#856)) ;
#876=EDGE_LOOP('',(#877,#878,#879,#880)) ;
#900=EDGE_LOOP('',(#901,#902,#903,#904)) ;
#917=EDGE_LOOP('',(#918,#919,#920,#921)) ;
#962=EDGE_LOOP('',(#963,#964,#965,#966,#967,#968,#969,#970,#971,#972,#973,#974,#975,#976)) ;
#978=EDGE_LOOP('',(#979,#980)) ;
#982=EDGE_LOOP('',(#983,#984)) ;
#986=EDGE_LOOP('',(#987,#988,#989,#990,#991,#992)) ;
#1016=EDGE_LOOP('',(#1017,#1018,#1019,#1020)) ;
#1036=EDGE_LOOP('',(#1037,#1038,#1039,#1040,#1041)) ;
#1057=EDGE_LOOP('',(#1058,#1059,#1060,#1061,#1062)) ;
#1070=EDGE_LOOP('',(#1071,#1072,#1073,#1074)) ;
#1082=EDGE_LOOP('',(#1083,#1084,#1085,#1086)) ;
#90=FACE_OUTER_BOUND('',#85,.T.) ;
#107=FACE_OUTER_BOUND('',#102,.T.) ;
#147=FACE_OUTER_BOUND('',#142,.T.) ;
#178=FACE_OUTER_BOUND('',#173,.T.) ;
#209=FACE_OUTER_BOUND('',#204,.T.) ;
#240=FACE_OUTER_BOUND('',#235,.T.) ;
#271=FACE_OUTER_BOUND('',#266,.T.) ;
#302=FACE_OUTER_BOUND('',#297,.T.) ;
#333=FACE_OUTER_BOUND('',#328,.T.) ;
#373=FACE_OUTER_BOUND('',#368,.T.) ;
#390=FACE_OUTER_BOUND('',#385,.T.) ;
#430=FACE_OUTER_BOUND('',#425,.T.) ;
#461=FACE_OUTER_BOUND('',#456,.T.) ;
#492=FACE_OUTER_BOUND('',#487,.T.) ;
#523=FACE_OUTER_BOUND('',#518,.T.) ;
#554=FACE_OUTER_BOUND('',#549,.T.) ;
#576=FACE_OUTER_BOUND('',#571,.T.) ;
#613=FACE_OUTER_BOUND('',#602,.T.) ;
#660=FACE_OUTER_BOUND('',#655,.T.) ;
#723=FACE_OUTER_BOUND('',#714,.T.) ;
#757=FACE_OUTER_BOUND('',#749,.T.) ;
#791=FACE_OUTER_BOUND('',#783,.T.) ;
#824=FACE_OUTER_BOUND('',#818,.T.) ;
#857=FACE_OUTER_BOUND('',#851,.T.) ;
#881=FACE_OUTER_BOUND('',#876,.T.) ;
#905=FACE_OUTER_BOUND('',#900,.T.) ;
#922=FACE_OUTER_BOUND('',#917,.T.) ;
#977=FACE_OUTER_BOUND('',#962,.T.) ;
#1021=FACE_OUTER_BOUND('',#1016,.T.) ;
#1042=FACE_OUTER_BOUND('',#1036,.T.) ;
#1063=FACE_OUTER_BOUND('',#1057,.T.) ;
#1075=FACE_OUTER_BOUND('',#1070,.T.) ;
#1087=FACE_OUTER_BOUND('',#1082,.T.) ;
#45=UNCERTAINTY_MEASURE_WITH_UNIT(LENGTH_MEASURE(0.005),#41,'distance_accuracy_value','CONFUSED CURVE UNCERTAINTY') ;
#69=LINE('Line',#66,#68) ;
#83=LINE('Line',#80,#82) ;
#126=LINE('Line',#123,#125) ;
#140=LINE('Line',#137,#139) ;
#157=LINE('Line',#154,#156) ;
#166=LINE('Line',#163,#165) ;
#171=LINE('Line',#168,#170) ;
#202=LINE('Line',#199,#201) ;
#219=LINE('Line',#216,#218) ;
#226=LINE('Line',#223,#225) ;
#233=LINE('Line',#230,#232) ;
#264=LINE('Line',#261,#263) ;
#281=LINE('Line',#278,#280) ;
#290=LINE('Line',#287,#289) ;
#295=LINE('Line',#292,#294) ;
#326=LINE('Line',#323,#325) ;
#352=LINE('Line',#349,#351) ;
#366=LINE('Line',#363,#365) ;
#400=LINE('Line',#397,#399) ;
#409=LINE('Line',#406,#408) ;
#416=LINE('Line',#413,#415) ;
#423=LINE('Line',#420,#422) ;
#440=LINE('Line',#437,#439) ;
#447=LINE('Line',#444,#446) ;
#454=LINE('Line',#451,#453) ;
#471=LINE('Line',#468,#470) ;
#478=LINE('Line',#475,#477) ;
#485=LINE('Line',#482,#484) ;
#502=LINE('Line',#499,#501) ;
#509=LINE('Line',#506,#508) ;
#516=LINE('Line',#513,#515) ;
#533=LINE('Line',#530,#532) ;
#540=LINE('Line',#537,#539) ;
#547=LINE('Line',#544,#546) ;
#564=LINE('Line',#561,#563) ;
#569=LINE('Line',#566,#568) ;
#586=LINE('Line',#583,#585) ;
#600=LINE('Line',#597,#599) ;
#639=LINE('Line',#636,#638) ;
#646=LINE('Line',#643,#645) ;
#670=LINE('Line',#667,#669) ;
#677=LINE('Line',#674,#676) ;
#684=LINE('Line',#681,#683) ;
#691=LINE('Line',#688,#690) ;
#705=LINE('Line',#702,#704) ;
#712=LINE('Line',#709,#711) ;
#733=LINE('Line',#730,#732) ;
#740=LINE('Line',#737,#739) ;
#776=LINE('Line',#773,#775) ;
#781=LINE('Line',#778,#780) ;
#801=LINE('Line',#798,#800) ;
#808=LINE('Line',#805,#807) ;
#844=LINE('Line',#841,#843) ;
#849=LINE('Line',#846,#848) ;
#867=LINE('Line',#864,#866) ;
#874=LINE('Line',#871,#873) ;
#898=LINE('Line',#895,#897) ;
#915=LINE('Line',#912,#914) ;
#932=LINE('Line',#929,#931) ;
#948=LINE('Line',#945,#947) ;
#955=LINE('Line',#952,#954) ;
#960=LINE('Line',#957,#959) ;
#2=MECHANICAL_CONTEXT(' ',#1,'mechanical') ;
#24=PERSONAL_ADDRESS(' ',' ',' ',' ',' ',' ',' ',' ',' ',' ',' ',' ',(#22),' ') ;
#153=PLANE('Plane',#152) ;
#215=PLANE('Plane',#214) ;
#277=PLANE('Plane',#276) ;
#396=PLANE('Plane',#395) ;
#436=PLANE('Plane',#435) ;
#467=PLANE('Plane',#466) ;
#498=PLANE('Plane',#497) ;
#529=PLANE('Plane',#528) ;
#560=PLANE('Plane',#559) ;
#582=PLANE('Plane',#581) ;
#666=PLANE('Plane',#665) ;
#729=PLANE('Plane',#728) ;
#763=PLANE('Plane',#762) ;
#797=PLANE('Plane',#796) ;
#830=PLANE('Plane',#829) ;
#863=PLANE('Plane',#862) ;
#911=PLANE('Plane',#910) ;
#928=PLANE('Plane',#927) ;
#43=PLANE_ANGLE_MEASURE_WITH_UNIT(PLANE_ANGLE_MEASURE(0.0174532925199),#42) ;
#7=PRODUCT_CATEGORY('part',$) ;
#9=PRODUCT_CATEGORY_RELATIONSHIP(' ',' ',#7,#8) ;
#6=PRODUCT_DEFINITION_FORMATION_WITH_SPECIFIED_SOURCE('',' ',#5,.NOT_KNOWN.) ;
#8=PRODUCT_RELATED_PRODUCT_CATEGORY('detail',$,(#5)) ;
#50=SHAPE_DEFINITION_REPRESENTATION(#40,#49) ;
#1005=SURFACE_OF_REVOLUTION('homeo Torus',#995,#1004) ;
#62=VERTEX_POINT('',#61) ;
#64=VERTEX_POINT('',#63) ;
#71=VERTEX_POINT('',#70) ;
#78=VERTEX_POINT('',#77) ;
#119=VERTEX_POINT('',#118) ;
#121=VERTEX_POINT('',#120) ;
#128=VERTEX_POINT('',#127) ;
#135=VERTEX_POINT('',#134) ;
#159=VERTEX_POINT('',#158) ;
#161=VERTEX_POINT('',#160) ;
#190=VERTEX_POINT('',#189) ;
#197=VERTEX_POINT('',#196) ;
#221=VERTEX_POINT('',#220) ;
#228=VERTEX_POINT('',#227) ;
#252=VERTEX_POINT('',#251) ;
#259=VERTEX_POINT('',#258) ;
#283=VERTEX_POINT('',#282) ;
#285=VERTEX_POINT('',#284) ;
#314=VERTEX_POINT('',#313) ;
#321=VERTEX_POINT('',#320) ;
#345=VERTEX_POINT('',#344) ;
#347=VERTEX_POINT('',#346) ;
#354=VERTEX_POINT('',#353) ;
#361=VERTEX_POINT('',#360) ;
#402=VERTEX_POINT('',#401) ;
#404=VERTEX_POINT('',#403) ;
#411=VERTEX_POINT('',#410) ;
#418=VERTEX_POINT('',#417) ;
#442=VERTEX_POINT('',#441) ;
#449=VERTEX_POINT('',#448) ;
#473=VERTEX_POINT('',#472) ;
#480=VERTEX_POINT('',#479) ;
#504=VERTEX_POINT('',#503) ;
#511=VERTEX_POINT('',#510) ;
#535=VERTEX_POINT('',#534) ;
#542=VERTEX_POINT('',#541) ;
#588=VERTEX_POINT('',#587) ;
#595=VERTEX_POINT('',#594) ;
#641=VERTEX_POINT('',#640) ;
#648=VERTEX_POINT('',#647) ;
#672=VERTEX_POINT('',#671) ;
#679=VERTEX_POINT('',#678) ;
#686=VERTEX_POINT('',#685) ;
#693=VERTEX_POINT('',#692) ;
#700=VERTEX_POINT('',#699) ;
#707=VERTEX_POINT('',#706) ;
#735=VERTEX_POINT('',#734) ;
#742=VERTEX_POINT('',#741) ;
#769=VERTEX_POINT('',#768) ;
#771=VERTEX_POINT('',#770) ;
#803=VERTEX_POINT('',#802) ;
#810=VERTEX_POINT('',#809) ;
#837=VERTEX_POINT('',#836) ;
#839=VERTEX_POINT('',#838) ;
#869=VERTEX_POINT('',#868) ;
#893=VERTEX_POINT('',#892) ;
#934=VERTEX_POINT('',#933) ;
#936=VERTEX_POINT('',#935) ;
#943=VERTEX_POINT('',#942) ;
#950=VERTEX_POINT('',#949) ;
#41=(LENGTH_UNIT()NAMED_UNIT(*)SI_UNIT(.MILLI.,.METRE.)) ;
#42=(NAMED_UNIT(*)PLANE_ANGLE_UNIT()SI_UNIT($,.RADIAN.)) ;
#44=(NAMED_UNIT(*)SI_UNIT($,.STERADIAN.)SOLID_ANGLE_UNIT()) ;
#46=(GEOMETRIC_REPRESENTATION_CONTEXT(3)GLOBAL_UNCERTAINTY_ASSIGNED_CONTEXT((#45))GLOBAL_UNIT_ASSIGNED_CONTEXT((#41,#42,#44))REPRESENTATION_CONTEXT(' ',' ')) ;
ENDSEC;
END-ISO-10303-21;
